…
Did this work? Yes!

``` r
cv_df |> pull(train) |> nth(8) #gives e.g. 8th training and testing split
```

    ## # A tibble: 176 × 3
    ##    range logratio    id
    ##    <dbl>    <dbl> <int>
    ##  1   391  -0.0601     2
    ##  2   393  -0.0419     3
    ##  3   394  -0.0510     4
    ##  4   396  -0.0599     5
    ##  5   397  -0.0284     6
    ##  6   399  -0.0596     7
    ##  7   400  -0.0399     8
    ##  8   403  -0.0395    10
    ##  9   406  -0.0604    12
    ## 10   408  -0.0312    13
    ## # ℹ 166 more rows
…
